Data manipulation practice: Sunshine list 2019
…
Institutions by number of people in the list

# df of number of employed by employer
dfNumInstit <- dfCleaned %>% group_by(Employer) %>% summarize(count = n()) %>% arrange(desc(count))
dfNumInstit

## # A tibble: 1,898 x 2
##    Employer                                     count
##    <chr>                                        <int>
##  1 Ontario Power Generation                      8043
##  2 City Of Toronto                               6806
##  3 Ontario Provincial Police                     5062
##  4 City Of Toronto - Police Service              4876
##  5 University Of Toronto                         4342
##  6 Toronto District School Board                 3743
##  7 City Of Ottawa                                3251
##  8 City Of Toronto - Toronto Transit Commission  3033
##  9 Attorney General                              2196
## 10 Peel District School Board                    2051
## # ... with 1,888 more rows
…
People by their salaries and their institutions

# df of people and their respective institution listed by descending order of salary
dfTopPeople <- dfCleaned %>% group_by(Last.Name, First.Name, Employer) %>% 
  arrange(desc(Salary.Paid))
dfTopPeople

## # A tibble: 166,977 x 8
## # Groups:   Last.Name, First.Name, Employer [166,891]
##    Sector Last.Name First.Name Salary.Paid Taxable.Benefits Employer Job.Title
##    <chr>  <chr>     <chr>            <dbl> <chr>            <chr>    <chr>    
##  1 Ontar~ Lyash     Jeffrey        938846. $1,941.00        Ontario~ Presiden~
##  2 Ontar~ Hartwick  Kenneth        929764. $6,863.08        Ontario~ Presiden~
##  3 Hospi~ Smith     Kevin          844992. $70,255.68       Univers~ Presiden~
##  4 Ontar~ Reiner    Dietmar E.     837075. $2,298.24        Ontario~ Senior V~
##  5 Unive~ Smith     Daren          800749. $360.76          Univers~ Presiden~
##  6 Crown~ Fuller    Mark           797575. $662.32          Ontario~ Presiden~
##  7 Ontar~ Granville Sean           792196. $2,390.40        Ontario~ Deputy C~
##  8 Ontar~ Martelli  Mike           787752. $3,412.80        Ontario~ Presiden~
##  9 Crown~ Rigby     Stephen        762459. $1,422.78        Ontario~ Presiden~
## 10 Hospi~ Rutledge  Timothy        754414. $27,767.66       Unity H~ Presiden~
## # ... with 166,967 more rows, and 1 more variable: Calendar.Year <int>

Scatterplot of top 25 titles in average comp and their number of people in the list

# df of mean salary by job title and number of people of that title
dfMeanCompNumTitles <- dfCleaned %>% group_by(Job.Title) %>% 
  summarize(mean = mean(Salary.Paid), count = n()) %>% arrange(desc(mean))
dfMeanCompNumTitles

## # A tibble: 32,868 x 3
##    Job.Title                                                          mean count
##    <chr>                                                             <dbl> <int>
##  1 Senior Vice President Nuclear Projects                           8.37e5     1
##  2 President and Chief Investment Officer, University of Toronto A~ 8.01e5     1
##  3 Deputy Chief Nuclear Officer                                     7.92e5     1
##  4 President, Renewable Generation                                  7.88e5     1
##  5 Chair and Chief Executive Officer / Prsidente et chef de la d~ 6.94e5     1
##  6 Executive Vice President and Chief Operating Officer / Vice-pr~ 6.73e5     1
##  7 President and Chief Executive Officer / Prsident et chef de l~ 6.67e5     4
##  8 Past employee                                                    6.39e5     1
##  9 Senior Vice President, Nuclear Fleet Operations                  6.33e5     1
## 10 Chief Executive Officer / Chef de la Direction                   6.26e5     1
## # ... with 32,858 more rows
…
